Digital History Project
…
chapters_gamma <- tidy(chapters_lda, matrix = "gamma")
chapters_gamma

## # A tibble: 2,776 x 3
##    document  topic     gamma
##    <chr>     <int>     <dbl>
##  1 three_477     1 0.0000193
##  2 two_228       1 0.0000139
##  3 two_220       1 0.000432 
##  4 one_64        1 0.000235 
##  5 three_462     1 0.999    
##  6 one_129       1 0.000250 
##  7 three_591     1 0.000482 
##  8 three_540     1 0.709    
##  9 one_125       1 0.000739 
## 10 three_635     1 0.000300 
## #  with 2,766 more rows

chapters_gamma <- chapters_gamma %>%
  separate(document, c("year", "entry"), sep = "_", convert = TRUE)
chapters_gamma

## # A tibble: 2,776 x 4
##    year  entry topic     gamma
##    <chr> <int> <int>     <dbl>
##  1 three   477     1 0.0000193
##  2 two     228     1 0.0000139
##  3 two     220     1 0.000432 
##  4 one      64     1 0.000235 
##  5 three   462     1 0.999    
##  6 one     129     1 0.000250 
##  7 three   591     1 0.000482 
##  8 three   540     1 0.709    
##  9 one     125     1 0.000739 
## 10 three   635     1 0.000300 
## #  with 2,766 more rows
…
